BoneCellType: R package for bone-relevant cell type assignment • BoneCellType
…
The labels on the x-axis contain following information <cluster
number __ source database __ cell type>. Dashed line indicates padj =
0.05.

Let’s now have a look at the format of the markerGSEA
results.

# show top 2 significant result for each cluster
topGSEAres = GSEAres %>% 
  group_by(cluster) %>% 
  top_n(n = 2, wt = -padj)

topGSEAres

#> # A tibble: 33 × 9
#> # Groups:   cluster [3]
#>    pathway             pval  padj log2err     ES   NES  size leadingEdge cluster
#>    <chr>              <dbl> <dbl>   <dbl>  <dbl> <dbl> <int> <chr>         <int>
#>  1 CellMarker2_mous… 0.0942 0.363   0.170 -0.905 -1.42     7 Hba-a1            0
#>  2 CellMarker2_mous… 0.168  0.363   0.127 -0.852 -1.33     6 S100a9,Ltf…       0
#>  3 CellMarker2_mous… 0.0738 0.363   0.190 -0.901 -1.44     8 Hba-a1,Hbb…       0
#>  4 CellMarker2_mous… 0.0817 0.363   0.194 -0.927 -1.42     5 Hba-a1            0
#>  5 MSigDB__Granuloc… 0.125  0.363   0.154 -0.896 -1.38     5 S100a9,Mal…       0
#>  6 MSigDB__Granuloc… 0.152  0.363   0.121 -0.829 -1.35    13 S100a9,Mal…       0
#>  7 MSigDB__Hematopo… 0.0940 0.363   0.167 -0.889 -1.42     8 S100a9,Mal…       0
#>  8 MSigDB__Late_pro… 0.172  0.363   0.125 -0.847 -1.32     6 S100a9,S10…       0
#>  9 MSigDB__Macropha… 0.153  0.363   0.128 -0.847 -1.35     8 S100a9,Ltf…       0
#> 10 MSigDB__Mature_a… 0.175  0.363   0.124 -0.843 -1.31     6 Malat1            0
#> # ℹ 23 more rows
…
